/home/abhishek/workspace/Assignment3_GraphBuilder/src/com/me/graphBuilder/SpeciesGraphBuilderMapper.java
/home/abhishek/workspace/Assignment3_GraphBuilder/src/com/me/graphBuilder/SpeciesGraphBuilderReducer.java
/home/abhishek/workspace/Assignment3_GraphBuilder/src/com/me/graphBuilder/SpeciesGraphBuilder.java
